~casado/scratch2/HGTD/Samples/mc15_14TeV.147911.Pythia8_AU2CT10_jetjet_JZ1W.merge.DAOD_TRUTH3.e2403_p2768/DAOD_TRUTH3.10077726._000006.pool.root.1
~casado/scratch2/HGTD/Samples/mc15_14TeV.147911.Pythia8_AU2CT10_jetjet_JZ1W.merge.DAOD_TRUTH3.e2403_p2768/DAOD_TRUTH3.10077726._000007.pool.root.1
~casado/scratch2/HGTD/Samples/mc15_14TeV.147911.Pythia8_AU2CT10_jetjet_JZ1W.merge.DAOD_TRUTH3.e2403_p2768/DAOD_TRUTH3.10077726._000008.pool.root.1
~casado/scratch2/HGTD/Samples/mc15_14TeV.147911.Pythia8_AU2CT10_jetjet_JZ1W.merge.DAOD_TRUTH3.e2403_p2768/DAOD_TRUTH3.10077726._000009.pool.root.1
~casado/scratch2/HGTD/Samples/mc15_14TeV.147911.Pythia8_AU2CT10_jetjet_JZ1W.merge.DAOD_TRUTH3.e2403_p2768/DAOD_TRUTH3.10077726._000010.pool.root.1
~casado/scratch2/HGTD/Samples/mc15_14TeV.147911.Pythia8_AU2CT10_jetjet_JZ1W.merge.DAOD_TRUTH3.e2403_p2768/DAOD_TRUTH3.10077726._000011.pool.root.1
~casado/scratch2/HGTD/Samples/mc15_14TeV.147911.Pythia8_AU2CT10_jetjet_JZ1W.merge.DAOD_TRUTH3.e2403_p2768/DAOD_TRUTH3.10077726._000012.pool.root.1
~casado/scratch2/HGTD/Samples/mc15_14TeV.147911.Pythia8_AU2CT10_jetjet_JZ1W.merge.DAOD_TRUTH3.e2403_p2768/DAOD_TRUTH3.10077726._000013.pool.root.1
