~casado/scratch2/HGTD/Samples/mc15_14TeV.410007.PowhegPythiaEvtGen_P2012_ttbar_hdamp172p5_allhad.merge.DAOD_TRUTH3.e5168_p2768/DAOD_TRUTH3.13142374._000001.pool.root.1
~casado/scratch2/HGTD/Samples/mc15_14TeV.410007.PowhegPythiaEvtGen_P2012_ttbar_hdamp172p5_allhad.merge.DAOD_TRUTH3.e5168_p2768/DAOD_TRUTH3.13142374._000002.pool.root.1
~casado/scratch2/HGTD/Samples/mc15_14TeV.410007.PowhegPythiaEvtGen_P2012_ttbar_hdamp172p5_allhad.merge.DAOD_TRUTH3.e5168_p2768/DAOD_TRUTH3.13142374._000003.pool.root.1
~casado/scratch2/HGTD/Samples/mc15_14TeV.410007.PowhegPythiaEvtGen_P2012_ttbar_hdamp172p5_allhad.merge.DAOD_TRUTH3.e5168_p2768/DAOD_TRUTH3.13142374._000004.pool.root.1
