SR,events,acceptance,err
VBFHtautau__All,1870000,8.11889e+06,3.60834e+07
VBFHtautau__SR_Gbb_A,0,0,0
VBFHtautau__SR_Gbb_B,0,0,0
VBFHtautau__SR_Gbb_C,0,0,0
VBFHtautau__SR_Gbb_D,0,0,0
VBFHtautau__SR_Gtt_0l_A,0,0,0
VBFHtautau__SR_Gtt_0l_B,0,0,0
VBFHtautau__SR_Gtt_0l_C,0,0,0
VBFHtautau__SR_Gtt_1l_A,0,0,0
VBFHtautau__SR_Gtt_1l_B,0,0,0
VBFHtautau__SR_Gtt_1l_C,0,0,0
VBFHtautau__SR_0l_Hnj_Hmeff,0,0,0
VBFHtautau__SR_0l_Hnj_Imeff,0,0,0
VBFHtautau__SR_0l_Hnj_Lmeff,0,0,0
VBFHtautau__SR_0l_IStR,0,0,0
VBFHtautau__SR_0l_Inj_Imeff,0,0,0
VBFHtautau__SR_0l_Inj_Lmeff,0,0,0
VBFHtautau__SR_0l_Lnj_Hmeff,0,0,0
VBFHtautau__SR_0l_Lnj_Imeff,0,0,0
VBFHtautau__SR_0l_Lnj_Lmeff,0,0,0
VBFHtautau__SR_1l_Hnj_Hmeff,0,0,0
VBFHtautau__SR_1l_Hnj_Imeff,0,0,0
VBFHtautau__SR_1l_Hnj_Lmeff,0,0,0
VBFHtautau__SR_1l_Inj_Imeff,0,0,0
VBFHtautau__SR_1l_Inj_Lmeff,0,0,0
VBFHtautau__CR_Gbb_A,0,0,0
VBFHtautau__CR_Gbb_B,0,0,0
VBFHtautau__CR_Gbb_C,0,0,0
VBFHtautau__CR_Gbb_D,0,0,0
VBFHtautau__CR_Gtt_0l_A,0,0,0
VBFHtautau__CR_Gtt_0l_B,0,0,0
VBFHtautau__CR_Gtt_0l_C,0,0,0
VBFHtautau__CR_Gtt_1l_A,0,0,0
VBFHtautau__CR_Gtt_1l_B,0,0,0
VBFHtautau__CR_Gtt_1l_C,0,0,0
VBFHtautau__CR_Hnj_Hmeff,0,0,0
VBFHtautau__CR_Hnj_Imeff,0,0,0
VBFHtautau__CR_Hnj_Lmeff,0,0,0
VBFHtautau__CR_IStR,0,0,0
VBFHtautau__CR_Inj_Imeff,0,0,0
VBFHtautau__CR_Inj_Lmeff,0,0,0
VBFHtautau__CR_Lnj_Hmeff,0,0,0
VBFHtautau__CR_Lnj_Imeff,0,0,0
VBFHtautau__CR_Lnj_Lmeff,0,0,0
VBFHtautau__VR1_Gtt_0l_A,0,0,0
VBFHtautau__VR1_Gtt_0l_B,0,0,0
VBFHtautau__VR1_Gtt_0l_C,0,0,0
VBFHtautau__VR2_Gtt_0l_A,0,0,0
VBFHtautau__VR2_Gtt_0l_B,0,0,0
VBFHtautau__VR2_Gtt_0l_C,0,0,0
VBFHtautau__VR1_Gtt_1l_A,0,0,0
VBFHtautau__VR1_Gtt_1l_B,0,0,0
VBFHtautau__VR1_Gtt_1l_C,0,0,0
VBFHtautau__VR2_Gtt_1l_A,0,0,0
VBFHtautau__VR2_Gtt_1l_B,0,0,0
VBFHtautau__VR2_Gtt_1l_C,0,0,0
VBFHtautau__VR1_Gbb_A,0,0,0
VBFHtautau__VR1_Gbb_B,0,0,0
VBFHtautau__VR1_Gbb_C,0,0,0
VBFHtautau__VR1_Gbb_D,0,0,0
VBFHtautau__VR2_Gbb_A,0,0,0
VBFHtautau__VR2_Gbb_B,0,0,0
VBFHtautau__VR2_Gbb_C,0,0,0
VBFHtautau__VR2_Gbb_D,0,0,0
VBFHtautau__VR0l_Lnj_Lmeff,0,0,0
VBFHtautau__VR0l_Lnj_Imeff,0,0,0
VBFHtautau__VR0l_Lnj_Hmeff,0,0,0
VBFHtautau__VR0l_Inj_Lmeff,0,0,0
VBFHtautau__VR0l_Inj_Imeff,0,0,0
VBFHtautau__VR0l_Hnj_Lmeff,0,0,0
VBFHtautau__VR0l_Hnj_Imeff,0,0,0
VBFHtautau__VR0l_Hnj_Hmeff,0,0,0
VBFHtautau__VR0l_IStR,0,0,0
VBFHtautau__VR1l_Inj_Lmeff,0,0,0
VBFHtautau__VR1l_Inj_Imeff,0,0,0
VBFHtautau__VR1l_Hnj_Lmeff,0,0,0
VBFHtautau__VR1l_Hnj_Imeff,0,0,0
VBFHtautau__VR1l_Hnj_Hmeff,0,0,0
