/tmp/sgonzalez/mc15_14TeV.147910.Pythia8_AU2CT10_jetjet_JZ0W.merge.DAOD_TRUTH3.e2403_p2768/DAOD_TRUTH3.10077675._000001.pool.root.1
/tmp/sgonzalez/mc15_14TeV.147910.Pythia8_AU2CT10_jetjet_JZ0W.merge.DAOD_TRUTH3.e2403_p2768/DAOD_TRUTH3.10077675._000005.pool.root.1
/tmp/sgonzalez/mc15_14TeV.147910.Pythia8_AU2CT10_jetjet_JZ0W.merge.DAOD_TRUTH3.e2403_p2768/DAOD_TRUTH3.10077681._000001.pool.root.1
/tmp/sgonzalez/mc15_14TeV.147910.Pythia8_AU2CT10_jetjet_JZ0W.merge.DAOD_TRUTH3.e2403_p2768/DAOD_TRUTH3.10077681._000002.pool.root.1
/tmp/sgonzalez/mc15_14TeV.147910.Pythia8_AU2CT10_jetjet_JZ0W.merge.DAOD_TRUTH3.e2403_p2768/DAOD_TRUTH3.13226851._000001.pool.root.1
/tmp/sgonzalez/mc15_14TeV.147910.Pythia8_AU2CT10_jetjet_JZ0W.merge.DAOD_TRUTH3.e2403_p2768/DAOD_TRUTH3.13226851._000002.pool.root.1
